<?xml version="1.0" encoding="iso-8859-1"?>
<!-- Generator: Adobe Illustrator 19.0.0, SVG Export Plug-In . SVG Version: 6.00 Build 0)  -->
<svg version="1.1" id="Capa_1" xmlns="http://www.w3.org/2000/svg" xmlns:xlink="http://www.w3.org/1999/xlink" x="0px" y="0px"
	 viewBox="0 0 512 512" style="enable-background:new 0 0 512 512;" xml:space="preserve">
<g>
	<g>
		<path d="M512,228.213c0-31.254-25.428-56.682-56.682-56.682c-25.045,0-46.52,16.36-53.922,39.19h-44.962
			c-4.783-9.855-11.18-19.399-19.174-28.586c-16.137-18.544-38.491-35.295-66.442-49.789
			c-52.09-27.011-110.174-39.313-142.097-39.313c-35.142,0-67.923,17.472-92.307,49.198C12.933,172.785,0,213.188,0,256
			c0,42.811,12.933,83.215,36.415,113.77c24.383,31.726,57.165,49.198,92.307,49.198c31.923,0,90.007-12.302,142.097-39.313
			c27.951-14.494,50.306-31.246,66.442-49.789c7.995-9.187,14.392-18.732,19.174-28.587h44.961
			c7.402,22.83,28.877,39.19,53.922,39.19c31.254,0,56.682-25.427,56.682-56.682c0-9.818-2.535-19.366-7.278-27.787
			C509.465,247.579,512,238.029,512,228.213z M128.722,388.968C74.286,388.967,30,329.318,30,256
			c0-73.319,44.286-132.968,98.722-132.968c54.435,0,98.721,59.649,98.721,132.968C227.443,329.318,183.157,388.968,128.722,388.968
			z M257.008,353.023c-11.366,5.894-23.23,11.085-35.089,15.559c22.914-30.41,35.523-70.319,35.523-112.581
			c0-42.262-12.61-82.171-35.523-112.581c11.859,4.473,23.722,9.665,35.089,15.559C293.5,177.899,337,210.093,337,256
			S293.5,334.101,257.008,353.023z M475.203,266.005c4.384,4.896,6.798,11.211,6.798,17.782c0,14.712-11.97,26.682-26.682,26.682
			c-14.102,0-25.798-11.014-26.628-25.074l-0.833-14.116h-62.01C366.612,266.245,367,261.151,367,256
			c0-5.152-0.388-10.246-1.152-15.279h62.01l0.833-14.116c0.83-14.06,12.526-25.074,26.628-25.074
			c14.712,0,26.682,11.969,26.682,26.682c0,6.571-2.414,12.886-6.798,17.782L466.246,256L475.203,266.005z"/>
	</g>
</g>
<g>
	<g>
		<path d="M128.721,207.987c-26.475,0-48.013,21.539-48.013,48.013s21.539,48.013,48.013,48.013
			c26.475,0,48.013-21.538,48.013-48.013C176.734,229.524,155.195,207.987,128.721,207.987z M128.722,274.013
			c-9.933,0-18.013-8.08-18.013-18.013c0-9.933,8.081-18.013,18.013-18.013s18.013,8.081,18.013,18.013
			C146.735,265.932,138.654,274.013,128.722,274.013z"/>
	</g>
</g>
<g>
</g>
<g>
</g>
<g>
</g>
<g>
</g>
<g>
</g>
<g>
</g>
<g>
</g>
<g>
</g>
<g>
</g>
<g>
</g>
<g>
</g>
<g>
</g>
<g>
</g>
<g>
</g>
<g>
</g>
</svg>
